…
dados_peixes %>%
  group_by(peso_g)%>%
  mutate(sexo_recod = recode(
    sexo, "Fêmea" = "Fêmea",
          "fêmea" = "Fêmea",
          "Macho" = "Macho"  ))%>%
  count(sexo_recod) %>%
  summarise(sexo_recod= sexo_recod
  )%>%
  filter(sexo_recod %in% c("Fêmea", "Macho"))%>%
  arrange(desc(peso_g)) %>%
  top_n(5)
```

    ## # A tibble: 2,283 x 2
    ## # Groups:   peso_g [1,471]
    ##    peso_g sexo_recod
    ##     <dbl> <chr>     
    ##  1  14600 Fêmea     
    ##  2  12405 Fêmea     
    ##  3  11600 Fêmea     
    ##  4  11230 Fêmea     
    ##  5  10770 Fêmea     
    ##  6  10545 Fêmea     
    ##  7  10030 Fêmea     
    ##  8   9696 Fêmea     
    ##  9   9200 Fêmea     
    ## 10   9110 Fêmea     
    ## # ... with 2,273 more rows
…
**Questão 08.** Utilizei o código abaixo para agrupar a variável
*uf\_busca* e organizar a frequência absoluta de forma decrescente.

``` r
dados_cursos %>%
group_by(uf_busca)%>%
  summarise(
    n=n()
  )%>%
arrange(desc(n))
```

    ## # A tibble: 27 x 2
    ##    uf_busca     n
    ##    <chr>    <int>
    ##  1 SP       11533
    ##  2 MG        4175
    ##  3 PR        3918
    ##  4 RS        3060
    ##  5 BA        2505
    ##  6 SC        2195
    ##  7 RJ        1442
    ##  8 GO        1278
    ##  9 PA        1201
    ## 10 PE        1148
    ## # ... with 17 more rows
…
